com\iqvia\integrator\libs\hl7\Model\SubComponent.class
com\iqvia\integrator\libs\hl7\Hl7Parser\Parser.class
com\iqvia\integrator\libs\hl7\Model\Component.class
com\iqvia\integrator\libs\hl7\Model\Segment.class
com\iqvia\integrator\libs\hl7\Model\Field.class
com\iqvia\integrator\libs\hl7\Model\Message.class
